{
    "textos": [
        {
            "btn": "p11",
            "html": "<center><b>Objetivo </b></center></br><b>¿Qué propósito tiene?</b><br>Demostrar la lectura, comprensión, análisis o valoración de <b>un texto</b> por parte del lector. ",
            "edificio": "1"
        },
        {
            "btn": "p12",
            "html": "<center><b>Contexto de producción </b> </center></br><b>¿En qué medio se exige?</b><br><br> Puede ser solicitado en la etapa inicial de una carrera de formación profesional. ",
            "edificio": "1"
        },
        {
            "btn": "p13",
            "html": "<center><b>Fuentes de consulta</b></center> </br><b>¿De dónde se extrae la información?</b><br><br> Dependiendo del tipo de comentario que se exija, puede ser suficiente la lectura del texto base o requerir recursos externos, ya sea conocimientos previos del lector o la consulta de fuentes de información sobre el tema desarrollado a lo largo del texto. ",
            "edificio": "1"
        },
        {
            "btn": "p14",
            "html": "<center><b>Extensión aproximada</b> </center></br><b>¿Cuántas páginas exige?</b><br><br>   Entre 30 y 50 líneas, o el equivalente a una (1) página.",
            "edificio": "1"
        },
        {
            "btn": "p21",
            "html": "<center><b>Información </b></center></br><b>¿Qué tipo de información comprende? </b><br>Una breve y objetiva presentación del contenido o tema central del texto leído",
            "edificio": "1"
        },
        {
            "btn": "p22",
            "html": "<center><b>Estructura </b></center></br><b>¿Cuál es su estructura? </b><br>Puede exponer las partes principales en que se divide el texto leído (una por una) o generalizar esa información siguiendo la estructura de un texto expositivo: introducción, desarrollo y conclusión.",
            "edificio": "1"
        },
        {
            "btn": "p23",
            "html": "<center><b>Fuentes</b></center></br><b>¿Qué fuentes requiere para su realización?  </b><br>Como se acerca lo suficiente al concepto conocido como resumen o síntesis, exige simplemente la lectura del texto base. ",
            "edificio": "1"
        },
        {
            "btn": "p31",
            "html": "<center><b>Información </b></center></br><b>¿Qué tipo de información comprende? </b><br>El análisis de los principales argumentos del texto leído. ",
            "edificio": "1"
        },
        {
            "btn": "p32",
            "html": "<center><b>Estructura </b></center></br><b>¿Cuál es su estructura? </b><br>Puede presentar al inicio los puntos esenciales del texto leído que vale la pena resaltar, y luego plantear, de manera general, el trabajo de análisis; o presentar de manera individual cada punto esencial con su análisis correspondiente.",
            "edificio": "1"
        },
        {
            "btn": "p33",
            "html": "<center><b>Fuentes</b></center></br><b>¿Qué fuentes requiere para su realización?  </b><br>Además del texto base, exige del lector conocimientos previos sobre el tema o temas en cuestión o información confiable extraída de fuentes bibliográficas.",
            "edificio": "1"
        },
        {
            "btn": "p41",
            "html": "<center><b>Información </b></center></br><b>¿Qué tipo de información comprende? </b><br>Una postura propia del lector frente al contenido del texto leído (apoyada por citas textuales). Puede incluir referencias o alusiones al autor, a la forma, al lenguaje, a la exposición o a la edición del texto, así como a otros elementos que el lector pueda considerar importantes. ",
            "edificio": "1"
        },
        {
            "btn": "p42",
            "html": "<center><b>Estructura </b></center></br><b>¿Cuál es su estructura? </b><br>Se recomienda seguir una de las siguientes estructuras argumentativas: inductiva, deductiva, circular o paralela.\r\n",
            "edificio": "1"
        },
        {
            "btn": "p43",
            "html": "<center><b>Fuentes</b></center></br><b>¿Qué fuentes requiere para su realización?  </b><br>Lectura del texto base, conocimientos previos bien fundamentados y fuentes bibliográficas de autoridades en la materia.\r\n",
            "edificio": "1"
        },
        {
            "btn": "rp_1",
            "html": "<b>Objetivo:</b> Valorar con objetividad una obra de arte de cualquiera de los siguientes géneros: literatura, teatro, música o cine. \r\n<br><br><b>Contexto de producción:</b> Puede hacer parte de medios de divulgación científica (revistas indexadas), publicaciones periódicas en formato papel o digital, medios de comunicación en general (radio, prensa, televisión) o ser solicitada como recurso evaluativo a nivel universitario. <br><br>\r\n<b>Fuentes de consulta:</b> La principal fuente de información la constituye la obra de arte a evaluar, aunque dicha evaluación suele verse apoyada por recursos externos que van desde los conocimientos previos del autor de la reseña hasta fuentes de diverso origen, que pueden incluir otras obras, textos especializados o declaraciones de expertos en el género al que corresponde la obra. <br><br>\r\n<b>Extensión aproximada:</b> Entre 2 y 3 páginas.\r\n",
            "edificio": "2"
        },
        {
            "btn": "rp_2",
            "html": "Se presentan al inicio de la reseña y comprenden los datos distintivos de la obra a valorar.<br><br> En el caso de un libro, los datos son los siguientes: título, autor, traductor (si lo hay), año de publicación, lugar de edición, editorial y número de páginas. <br><br>La reseña de una obra no escrita incluye otros datos: director, reparto, fecha de estreno, banda sonora, premios, etc. \r\n",
            "edificio": "2"
        },
        {
            "btn": "rp_3",
            "html": "Alusión general a uno o varios aspectos destacados de la obra que motivan su valoración.\r\n",
            "edificio": "2"
        },
        {
            "btn": "rp_4",
            "html": "Hace referencia a:\r\n<br><br>\r\n<b>Antecedentes de producción:</b> biografía, publicaciones e influencias del autor de la obra.\r\n<br><br>\r\n<b>Contenido:</b> argumento o tema tratado. \r\n<br><br>\r\n<b>Presentación: </b>componentes o partes en que se divide la obra y su organización. \r\n",
            "edificio": "2"
        },
        {
            "btn": "rp_5",
            "html": "Hace referencia a:\r\n<br><br>\r\n<b>Definición: </b>Crítica o juicio de valor objetivo sobre la obra reseñada.\r\n<br><br>\r\n<b>Crítica positiva:  </b> Resalta los aspectos por los cuales la obra se distingue entre otras: aportes novedosos, rigor investigativo, originalidad, etc.\r\n<br><br>\r\n<b>Crítica negativa: </b>Hace mención de las debilidades de fondo y de forma evidenciadas en la obra: argumentación, fuentes, lenguaje, extensión, etc.",
            "edificio": "2"
        },
        {
            "btn": "rp_6",
            "html": "Comprende los datos personales, y en ocasiones de contacto, de quien ha realizado la reseña: nombres, apellidos, departamento e institución a la que pertenece, correo electrónico, etc. ",
            "edificio": "2"
        },
        {
            "btn": "rp-1",
            "html": "<b>Objetivo:</b> Persuadir al lector, a través de una sólida argumentación, de la postura personal del autor frente a un tema concreto. <br><br><b>Contexto de producción:</b> Puede hacer parte de un libro o conformar un libro en su totalidad. Se encuentra también en publicaciones periódicas en formato papel o digital, o ser solicitado como recurso evaluativo a nivel universitario.  <br><br><b>Fuentes de consulta:</b> Según el tema a tratar, un ensayo contempla los conocimientos previos del autor apoyados en fuentes especializadas. <br><br><b>Extensión aproximada:</b> Puede constar de 5 a 20 páginas o abarcar un libro entero.",
            "edificio": "3"
        },
        {
            "btn": "rp-2",
            "html": "El ensayo exige un nivel culto y expresivo de la lengua, esto implica cuidado en la expresión, precisión en el vocabulario, corrección sintáctica y el uso de diversas figuras retóricas (metáforas, símiles, analogías, juegos de palabras, comparaciones, antítesis, etc.). <br><br>Sin embargo, a diferencia de otros textos académicos, el ensayo procura establecer una comunicación más directa con el lector.",
            "edificio": "3"
        },
        {
            "btn": "rp-3",
            "html": "Las áreas de conocimiento objeto de los ensayos suelen ser las Humanidades (Literatura, Historia, Filosofía, Sociología, Antropología, Psicología, Educación, Ciencias Políticas, etc.) y las distintas ramas de la Ciencia (Medicina, Biología, Astronomía, Física, etc.). <br><br>Se incluyen, además, el Arte, la Cultura y la Economía, entre otras.",
            "edificio": "3"
        },
        {
            "btn": "rp-4",
            "html": "El ensayo no exige una estructura específica, aunque se acostumbra seguir la estructura clásica de los textos expositivos y argumentativos: introducción, desarrollo y conclusión.<br><br> En el caso de un ensayo científico, el texto se puede estructurar deductiva o inductivamente.\r\n",
            "edificio": "3"
        },
        {
            "btn": "rp-5",
            "html": "En un ensayo prima el estilo personal e individual; es decir, independientemente de la validez de los argumentos expuestos, se evidencia el carácter subjetivo del texto, la voz del autor, su apreciación personal ante un asunto concreto. \r\n",
            "edificio": "3"
        },
        {
            "btn": "rp-6",
            "html": "<style>ul li {\r\n   list-style-type:none;\r\n}</style>\r\nAlgunos de los ensayistas más destacados de los últimos años a nivel nacional e internacional: \r\n<br>\r\n<br>\r\n<ul>\r\n<li>- Antonio Caballero</li>\r\n<li>- Héctor Abad Faciolince</li>\r\n<li>- William Ospina</li>\r\n<li>- Amos Oz</li>\r\n<li>- Joseph Stiglitz</li>\r\n<li>- Thomas Piketty</li>\r\n<li>- Noam Chomsky</li>\r\n<li>- Ítalo Calvino</li>\r\n<li>- José Saramago</li>\r\n<li>- Umberto Eco</li>\r\n<li>- Néstor García Canclini</li>\r\n<li>- Eduardo Galeano</li>\r\n<li>- Mario Vargas Llosa</li>\r\n</ul>",
            "edificio": "3"
        },
        {
            "btn": "c_1",
            "html": "<style>ul li {\r\n   list-style-type:none;\r\n}</style>\r\n<b>Estructura de un trabajo académico:</b>\r\n<br>\r\n<br>\r\n<ul>\r\n<li> 1. Portada</li>\r\n<li> 2. Resumen o abstract</li>\r\n<li> 3. Índice o tabla de contenido</li>\r\n<li> 4. Introducción o prólogo</li>\r\n<li> 5. Cuerpo del trabajo</li>\r\n<li>6. Conclusiones</li>\r\n<li>7. Anexos (opcional)</li>\r\n<li>8. Bibliografía o lista de referencias</li>\r\n</ul>",
            "edificio": "5"
        },
        {
            "btn": "c_2",
            "html": "<style>ul li {\r\n   list-style-type:none;\r\n}</style><center><b>Portada</b><br><br></center>\r\n<b>Sirve para identificar el trabajo. Suele contener la siguiente información: </b>\r\n<br>\r\n<br>\r\n<ul>\r\n<li>- Título del documento </li>\r\n<li>- Nombre completo del autor o autores (código(s), si corresponde) </li>\r\n<li>- Tipo de trabajo realizado (comentario de texto, reseña, ensayo, monografía, tesis, etc.) </li>\r\n<li>- Destinatario, director o asesor, según sea el caso (título académico o cargo y nombre completo) </li>\r\n<li>- Asignatura y grupo (si corresponde)</li>\r\n<li>- Facultad, Departamento o área a la que pertenece la carrera o postgrado</li>\r\n<li>- Programa, carrera o postgrado que se cursa </li>\r\n<li>- Ciudad </li>\r\n<li>- Fecha de presentación</li>\r\n</ul>",
            "edificio": "5"
        },
        {
            "btn": "c_3",
            "html": "<center><b>Resumen o abstract</b> </center><br><br>\r\nAdemás de presentar en pocas palabras (alrededor de 250 a 500) el contenido del texto, debe puntualizar en el objetivo y alcance del trabajo, la metodología empleada, los principales resultados y las conclusiones fundamentales",
            "edificio": "5"
        },
        {
            "btn": "c_4",
            "html": "<center><b>Índice o tabla de contenido </b> </center><br><br>\r\nConocido también como sumario, se presenta como una lista de las distintas secciones en que se divide el texto (partes, capítulos, temas y subtemas). <br><br>Está compuesto por los títulos de estos apartados, organizados y numerados según su orden de aparición en el texto, y la página donde cada uno de éstos se localiza. <br><br>Funciona a la manera de una guía para el lector del documento. \r\n",
            "edificio": "5"
        },
        {
            "btn": "c_5",
            "html": "<center><b>Introducción o prólogo</b> </center><br><br>\r\nSección inicial que adelanta de manera precisa y objetiva el contenido del texto.  <br><br>Además de cumplir una función de contextualización que busca situar el asunto a tratar en un marco temático concreto, suele tener como propósito enunciar tanto el objetivo establecido como la metodología adoptada.  <br><br>Su extensión y su complejidad varían según el tipo de texto académico. \r\n\r\n",
            "edificio": "5"
        },
        {
            "btn": "c_6",
            "html": "<center><b>Cuerpo del trabajo</b> </center><br><br>\r\nDividido en apartados y subapartados, constituye la parte más importante de un trabajo académico, ya que no sólo contiene la información obtenida de la investigación, sino que también plantea su fundamentación y análisis. <br><br>Al ser la parte más amplia de todo el documento, exige una estructura específica que presente sus componentes en el siguiente orden: teoría, método, resultados y discusión. Esto facilitará la claridad en la exposición, una de las claves de la escritura académica. \r\n",
            "edificio": "5"
        },
        {
            "btn": "c_7",
            "html": "<center><b>Conclusiones</b> </center><br><br>\r\nAsí como la introducción de un texto académico abre expectativas al lector respecto a los objetivos establecidos, las conclusiones buscan demostrarle que tales objetivos se han cumplido.  <br><br>Esto significa que antes que un resumen o una repetición de las ideas expuestas en el cuerpo del trabajo, las conclusiones consisten en un balance del trabajo realizado.<br><br>Lo anterior implica un contenido propio, una valoración que suele hacer énfasis en la aportación personal del autor del texto, en la originalidad en el tratamiento del tema desarrollado. <br> <br>Así mismo, busca incitar al lector a profundizar aún más en el asunto expuesto. \r\n",
            "edificio": "5"
        },
        {
            "btn": "c_8",
            "html": "<center><b>Anexos</b> </center><br><br>\r\nSu finalidad consiste en complementar el cuerpo del trabajo con información que no se ha podido introducir en el mismo para no afectar su presentación lógica y ordenada. <br><br>Por lo general, suele comprender material documental que ha servido como apoyo de la investigación realizada, ya sea del contenido propiamente dicho o de la metodología utilizada.\r\n",
            "edificio": "5"
        },
        {
            "btn": "c_9",
            "html": "<center><b>Bibliografía o lista de referencias</b> </center><br><br>\r\nCorresponde al registro organizado en orden alfabético de las fuentes de todo tipo de formato (papel o digital: libros, revistas, periódicos, informes, simposios, conferencias, tesis, trabajos de grado, material electrónico, etc.) que sirvieron como apoyo documental a la investigación. <br><br>Una bibliografía puede contener tanto las fuentes citadas como aquellas simplemente consultadas; mientras la lista de referencias incluye sólo los textos citados en el documento. Ambas incluyen los datos de referencia de cada fuente (autor, título, ciudad, editorial, año de publicación, URL, etc.). \r\n\r\n",
            "edificio": "5"
        }
    ]
}